{
    "properties": [
        {
            "modifiers": [], 
            "name": "AccountList", 
            "visibility": "PUBLIC", 
            "references": [], 
            "location": {
                "column": 19, 
                "line": 3
            }, 
            "type": "String"
        }
    ], 
    "methods": [
        {
            "modifiers": [
                "STATIC"
            ], 
            "name": "getlstAccount", 
            "parameters": [], 
            "visibility": "PUBLIC", 
            "references": [], 
            "location": {
                "column": 27, 
                "line": 20
            }, 
            "returnType": "String", 
            "type": null
        }
    ], 
    "innerClasses": [
        {
            "properties": [
                {
                    "modifiers": [], 
                    "name": "id", 
                    "visibility": "PUBLIC", 
                    "references": [], 
                    "location": {
                        "column": 23, 
                        "line": 8
                    }, 
                    "type": "String"
                }, 
                {
                    "modifiers": [], 
                    "name": "name", 
                    "visibility": "PUBLIC", 
                    "references": [], 
                    "location": {
                        "column": 23, 
                        "line": 9
                    }, 
                    "type": "String"
                }, 
                {
                    "modifiers": [], 
                    "name": "Phone", 
                    "visibility": "PUBLIC", 
                    "references": [], 
                    "location": {
                        "column": 23, 
                        "line": 10
                    }, 
                    "type": "String"
                }
            ], 
            "methods": [], 
            "innerClasses": [], 
            "variables": [], 
            "constructors": [
                {
                    "modifiers": [], 
                    "name": "Accountwrap", 
                    "parameters": [], 
                    "visibility": "PRIVATE", 
                    "references": [], 
                    "location": {
                        "column": 9, 
                        "line": 13
                    }, 
                    "type": null
                }
            ], 
            "namespace": null, 
            "name": "Accountwrap", 
            "tableDeclaration": {
                "type": "Accountwrap", 
                "modifiers": [], 
                "references": [], 
                "location": {
                    "column": 18, 
                    "line": 6
                }, 
                "name": "Accountwrap"
            }, 
            "key": null, 
            "id": null, 
            "externalReferences": []
        }
    ], 
    "variables": [
        {
            "type": "LIST", 
            "modifiers": [], 
            "references": [], 
            "location": {
                "column": 30, 
                "line": 21
            }, 
            "name": "lstwrap"
        }, 
        {
            "type": "LIST", 
            "modifiers": [], 
            "references": [], 
            "location": {
                "column": 26, 
                "line": 22
            }, 
            "name": "lstacc"
        }, 
        {
            "type": "Account", 
            "modifiers": [], 
            "references": [], 
            "location": {
                "column": 22, 
                "line": 25
            }, 
            "name": "a"
        }, 
        {
            "type": "Accountwrap", 
            "modifiers": [], 
            "references": [], 
            "location": {
                "column": 25, 
                "line": 26
            }, 
            "name": "awrap"
        }
    ], 
    "constructors": [], 
    "namespace": null, 
    "name": "AngularJSDemoController", 
    "tableDeclaration": {
        "type": "AngularJSDemoController", 
        "modifiers": [], 
        "references": [], 
        "location": {
            "column": 27, 
            "line": 1
        }, 
        "name": "AngularJSDemoController"
    }, 
    "key": "01po0000000PrKk", 
    "id": "01po0000000PrKk", 
    "externalReferences": []
}