{
    "properties": [], 
    "methods": [
        {
            "modifiers": [
                "TEST", 
                "STATIC"
            ], 
            "name": "testWelcomeClass", 
            "parameters": [], 
            "visibility": "PRIVATE", 
            "references": [], 
            "location": {
                "column": 33, 
                "line": 4
            }, 
            "returnType": "void", 
            "type": null
        }, 
        {
            "modifiers": [
                "STATIC"
            ], 
            "name": "userCreator", 
            "parameters": [], 
            "visibility": "PUBLIC", 
            "references": [], 
            "location": {
                "column": 21, 
                "line": 20
            }, 
            "returnType": "User", 
            "type": null
        }
    ], 
    "innerClasses": [], 
    "variables": [
        {
            "type": "User", 
            "modifiers": [], 
            "references": [], 
            "location": {
                "column": 8, 
                "line": 5
            }, 
            "name": "u"
        }, 
        {
            "type": "pxl_WelcomeClass", 
            "modifiers": [], 
            "references": [], 
            "location": {
                "column": 21, 
                "line": 8
            }, 
            "name": "wc"
        }, 
        {
            "type": "Boolean", 
            "modifiers": [], 
            "references": [], 
            "location": {
                "column": 12, 
                "line": 12
            }, 
            "name": "giitd"
        }, 
        {
            "type": "Profile", 
            "modifiers": [], 
            "references": [], 
            "location": {
                "column": 11, 
                "line": 21
            }, 
            "name": "pfiles"
        }, 
        {
            "type": "User", 
            "modifiers": [], 
            "references": [], 
            "location": {
                "column": 8, 
                "line": 23
            }, 
            "name": "u"
        }, 
        {
            "type": "User", 
            "modifiers": [], 
            "references": [], 
            "location": {
                "column": 8, 
                "line": 38
            }, 
            "name": "u2"
        }
    ], 
    "constructors": [], 
    "namespace": null, 
    "name": "pxl_TestWelcomeClass", 
    "tableDeclaration": {
        "type": "pxl_TestWelcomeClass", 
        "modifiers": [
            "TEST"
        ], 
        "references": [], 
        "location": {
            "column": 15, 
            "line": 2
        }, 
        "name": "pxl_TestWelcomeClass"
    }, 
    "key": "01po0000000Pr6H", 
    "id": "01po0000000Pr6H", 
    "externalReferences": []
}